{"@timestamp":"2023-02-27T08:14:00.2089319Z","severity":"INFO","service":"mancalagame","pid":4460,"thread":"main","logger":"com.bol.mancalagame.AlpMancalaApplication","message":"Starting AlpMancalaApplication using Java 19.0.2 with PID 4460 (C:\\Users\\Ayaz\\Desktop\\Projects\\alpmancala\\target\\classes started by Ayaz in C:\\Users\\Ayaz\\Desktop\\Projects\\alpmancala)"}
{"@timestamp":"2023-02-27T08:14:00.2329333Z","severity":"INFO","service":"mancalagame","pid":4460,"thread":"main","logger":"com.bol.mancalagame.AlpMancalaApplication","message":"No active profile set, falling back to 1 default profile: \"default\""}
{"stack_trace":"java.lang.TypeNotPresentException: Type javax.servlet.http.HttpServletRequest not present\r\n\tat java.base/sun.reflect.generics.factory.CoreReflectionFactory.makeNamedType(CoreReflectionFactory.java:117)\r\n\tat java.base/sun.reflect.generics.visitor.Reifier.visitClassTypeSignature(Reifier.java:125)\r\n\tat java.base/sun.reflect.generics.tree.ClassTypeSignature.accept(ClassTypeSignature.java:49)\r\n\tat java.base/sun.reflect.generics.visitor.Reifier.reifyTypeArguments(Reifier.java:68)\r\n\tat java.base/sun.reflect.generics.visitor.Reifier.visitClassTypeSignature(Reifier.java:138)\r\n\tat java.base/sun.reflect.generics.tree.ClassTypeSignature.accept(ClassTypeSignature.java:49)\r\n\tat java.base/sun.reflect.generics.repository.ClassRepository.computeSuperInterfaces(ClassRepository.java:117)\r\n\tat java.base/sun.reflect.generics.repository.ClassRepository.getSuperInterfaces(ClassRepository.java:95)\r\n\tat java.base/java.lang.Class.getGenericInterfaces(Class.java:1250)\r\n\tat org.springframework.core.ResolvableType.getInterfaces(ResolvableType.java:500)\r\n\tat org.springframework.core.ResolvableType.as(ResolvableType.java:448)\r\n\tat org.springframework.core.ResolvableType.forClass(ResolvableType.java:1048)\r\n\tat org.springframework.plugin.core.config.PluginRegistriesBeanDefinitionRegistrar.getTargetType(PluginRegistriesBeanDefinitionRegistrar.java:101)\r\n\tat org.springframework.plugin.core.config.PluginRegistriesBeanDefinitionRegistrar.registerBeanDefinitions(PluginRegistriesBeanDefinitionRegistrar.java:71)\r\n\tat org.springframework.context.annotation.ImportBeanDefinitionRegistrar.registerBeanDefinitions(ImportBeanDefinitionRegistrar.java:86)\r\n\tat org.springframework.context.annotation.ConfigurationClassBeanDefinitionReader.lambda$loadBeanDefinitionsFromRegistrars$1(ConfigurationClassBeanDefinitionReader.java:373)\r\n\tat java.base/java.util.LinkedHashMap.forEach(LinkedHashMap.java:729)\r\n\tat org.springframework.context.annotation.ConfigurationClassBeanDefinitionReader.loadBeanDefinitionsFromRegistrars(ConfigurationClassBeanDefinitionReader.java:372)\r\n\tat org.springframework.context.annotation.ConfigurationClassBeanDefinitionReader.loadBeanDefinitionsForConfigurationClass(ConfigurationClassBeanDefinitionReader.java:148)\r\n\tat org.springframework.context.annotation.ConfigurationClassBeanDefinitionReader.loadBeanDefinitions(ConfigurationClassBeanDefinitionReader.java:120)\r\n\tat org.springframework.context.annotation.ConfigurationClassPostProcessor.processConfigBeanDefinitions(ConfigurationClassPostProcessor.java:410)\r\n\tat org.springframework.context.annotation.ConfigurationClassPostProcessor.postProcessBeanDefinitionRegistry(ConfigurationClassPostProcessor.java:283)\r\n\tat org.springframework.context.support.PostProcessorRegistrationDelegate.invokeBeanDefinitionRegistryPostProcessors(PostProcessorRegistrationDelegate.java:344)\r\n\tat org.springframework.context.support.PostProcessorRegistrationDelegate.invokeBeanFactoryPostProcessors(PostProcessorRegistrationDelegate.java:115)\r\n\tat org.springframework.context.support.AbstractApplicationContext.invokeBeanFactoryPostProcessors(AbstractApplicationContext.java:745)\r\n\tat org.springframework.context.support.AbstractApplicationContext.refresh(AbstractApplicationContext.java:565)\r\n\tat org.springframework.boot.web.servlet.context.ServletWebServerApplicationContext.refresh(ServletWebServerApplicationContext.java:146)\r\n\tat org.springframework.boot.SpringApplication.refresh(SpringApplication.java:730)\r\n\tat org.springframework.boot.SpringApplication.refreshContext(SpringApplication.java:432)\r\n\tat org.springframework.boot.SpringApplication.run(SpringApplication.java:308)\r\n\tat org.springframework.boot.SpringApplication.run(SpringApplication.java:1302)\r\n\tat org.springframework.boot.SpringApplication.run(SpringApplication.java:1291)\r\n\tat com.bol.mancalagame.AlpMancalaApplication.main(AlpMancalaApplication.java:12)\r\nCaused by: java.lang.ClassNotFoundException: javax.servlet.http.HttpServletRequest\r\n\tat java.base/jdk.internal.loader.BuiltinClassLoader.loadClass(BuiltinClassLoader.java:641)\r\n\tat java.base/jdk.internal.loader.ClassLoaders$AppClassLoader.loadClass(ClassLoaders.java:188)\r\n\tat java.base/java.lang.ClassLoader.loadClass(ClassLoader.java:521)\r\n\tat java.base/java.lang.Class.forName0(Native Method)\r\n\tat java.base/java.lang.Class.forName(Class.java:495)\r\n\tat java.base/java.lang.Class.forName(Class.java:474)\r\n\tat java.base/sun.reflect.generics.factory.CoreReflectionFactory.makeNamedType(CoreReflectionFactory.java:114)\r\n\t... 32 common frames omitted\r\n","@timestamp":"2023-02-27T08:14:01.9820333Z","severity":"ERROR","service":"mancalagame","pid":4460,"thread":"main","logger":"org.springframework.boot.SpringApplication","message":"Application run failed"}
